weight;really important;important;neutral;less important;not important
IDE;0.3;0.52;0.09;0.07;0.02
Programming language;0.25;0.43;0.3;0.02;0
Workflow setup;0.14;0.48;0.34;0.05;0
Workflow development;0.34;0.43;0.2;0.02;0
Workflow deployment to emulator;0.32;0.39;0.23;0.05;0.02
Workflow deployment to device;0.39;0.52;0.09;0;0
Workflow release to store;0.19;0.49;0.19;0.09;0.05
Learning curve;0.11;0.52;0.27;0.09;0
Internationalization and localization;0.3;0.43;0.2;0.05;0.02
Integration of tests;0.32;0.36;0.23;0.07;0.02
Adaption to updates in the native environment;0.32;0.5;0.11;0.05;0.02
